alu_waveform.vcd
$date
	Sun Dec 08 07:18:04 2024
$end
$version
	Icarus Verilog
$end
$timescale
	1ps
$end
$scope module alu_tb $end
$var wire 8 ! result [7:0] $end
$var wire 4 " remainder [3:0] $end
$var wire 1 # carry_out $end
$var reg 4 $ A [3:0] $end
$var reg 4 % B [3:0] $end
$var reg 4 & opcode [3:0] $end
$scope module uut $end
$var wire 4 ' A [3:0] $end
$var wire 4 ( B [3:0] $end
$var wire 1 # carry_out $end
$var wire 4 ) opcode [3:0] $end
$var wire 4 * remainder [3:0] $end
$var wire 4 + xor_out [3:0] $end
$var wire 4 , xnor_out [3:0] $end
$var wire 4 - sub_out [3:0] $end
$var wire 1 . sub_borrow $end
$var wire 4 / shift_right_out [3:0] $end
$var wire 4 0 shift_result [3:0] $end
$var wire 4 1 shift_left_out [3:0] $end
$var wire 4 2 or_out [3:0] $end
$var wire 1 3 not_result $end
$var wire 4 4 not_out [3:0] $end
$var wire 1 5 nor_result $end
$var wire 4 6 nor_out [3:0] $end
$var wire 1 7 nand_result $end
$var wire 4 8 nand_out [3:0] $end
$var wire 8 9 mul_out [7:0] $end
$var wire 4 : div_remainder [3:0] $end
$var wire 4 ; div_out [3:0] $end
$var wire 4 < and_out [3:0] $end
$var wire 5 = add_out [4:0] $end
$var reg 8 > result [7:0] $end
$scope module add_inst $end
$var wire 4 ? a [3:0] $end
$var wire 4 @ b [3:0] $end
$var wire 1 A cin $end
$var wire 4 B sum [3:0] $end
$var wire 1 C cout $end
$upscope $end
$scope module and_inst $end
$var wire 4 D a [3:0] $end
$var wire 4 E b [3:0] $end
$var wire 4 F result [3:0] $end
$upscope $end
$scope module div_inst $end
$var wire 4 G a [3:0] $end
$var wire 4 H b [3:0] $end
$var wire 4 I remainder [3:0] $end
$var wire 4 J quotient [3:0] $end
$upscope $end
$scope module mul_inst $end
$var wire 4 K a [3:0] $end
$var wire 4 L b [3:0] $end
$var wire 8 M product [7:0] $end
$upscope $end
$scope module nand1 $end
$var wire 1 N a $end
$var wire 1 O b $end
$var wire 1 7 result $end
$upscope $end
$scope module nand_inst $end
$var wire 4 P a [3:0] $end
$var wire 4 Q b [3:0] $end
$var wire 4 R result [3:0] $end
$upscope $end
$scope module nor1 $end
$var wire 1 S a $end
$var wire 1 T b $end
$var wire 1 5 result $end
$upscope $end
$scope module nor_inst $end
$var wire 4 U a [3:0] $end
$var wire 4 V b [3:0] $end
$var wire 4 W result [3:0] $end
$upscope $end
$scope module not1 $end
$var wire 1 X a $end
$var wire 1 3 result $end
$upscope $end
$scope module not_inst $end
$var wire 4 Y a [3:0] $end
$var wire 4 Z result [3:0] $end
$upscope $end
$scope module or_inst $end
$var wire 4 [ a [3:0] $end
$var wire 4 \ b [3:0] $end
$var wire 4 ] result [3:0] $end
$upscope $end
$scope module shift_left_inst $end
$var wire 4 ^ a [3:0] $end
$var wire 4 _ b [3:0] $end
$var wire 4 ` right_shift_result [3:0] $end
$var wire 4 a left_shift_result [3:0] $end
$upscope $end
$scope module shift_right_inst $end
$var wire 4 b a [3:0] $end
$var wire 4 c b [3:0] $end
$var wire 4 d right_shift_result [3:0] $end
$var wire 4 e left_shift_result [3:0] $end
$upscope $end
$scope module shifter1 $end
$var wire 4 f a [3:0] $end
$var wire 2 g shift_control [1:0] $end
$var reg 4 h result [3:0] $end
$upscope $end
$scope module sub_inst $end
$var wire 4 i a [3:0] $end
$var wire 4 j b [3:0] $end
$var wire 4 k diff [3:0] $end
$var wire 1 . borrow $end
$upscope $end
$scope module xnor_inst $end
$var wire 4 l a [3:0] $end
$var wire 4 m b [3:0] $end
$var wire 4 n result [3:0] $end
$upscope $end
$scope module xor_inst $end
$var wire 4 o a [3:0] $end
$var wire 4 p b [3:0] $end
$var wire 4 q result [3:0] $end
$upscope $end
$upscope $end
$upscope $end
$enddefinitions $end
#0
$dumpvars
b0 q
b0 p
b0 o
b1111 n
b0 m
b0 l
b0 k
b0 j
b0 i
b0 h
b0 g
b0 f
b0 e
b0 d
b0 c
b0 b
b0 a
b0 `
b0 _
b0 ^
b0 ]
b0 \
b0 [
b1111 Z
b0 Y
0X
b1111 W
b0 V
b0 U
0T
0S
b1111 R
b0 Q
b0 P
0O
0N
b0 M
b0 L
b0 K
b0 J
b0 I
b0 H
b0 G
b0 F
b0 E
b0 D
0C
b0 B
0A
b0 @
b0 ?
b0 >
b0 =
b0 <
b0 ;
b0 :
b0 9
b1111 8
17
b1111 6
15
b1111 4
13
b0 2
b0 1
b0 0
b0 /
0.
b0 -
b1111 ,
b0 +
b0 *
b0 )
b0 (
b0 '
b0 &
b0 %
b0 $
0#
b0 "
b0 !
$end
#10000
05
03
b1110 6
b1110 W
b1110 ,
b1110 n
1X
1N
1S
b1 =
b1 B
b1110 4
b1110 Z
b1 2
b1 ]
b10 0
b10 h
b1 -
b1 k
b1 +
b1 q
b0 !
b0 >
b1 g
b1 1
b1 a
b1 `
b1 e
b1 /
b1 d
b1 $
b1 '
b1 ?
b1 D
b1 G
b1 K
b1 P
b1 U
b1 Y
b1 [
b1 ^
b1 b
b1 f
b1 i
b1 l
b1 o
b1101 &
b1101 )
#30000
15
b1 !
b1 >
13
b1111 6
b1111 W
b1111 ,
b1111 n
0X
0N
0S
b0 =
b0 B
b1111 4
b1111 Z
b0 2
b0 ]
b0 0
b0 h
b0 -
b0 k
b0 +
b0 q
b0 1
b0 a
b0 `
b0 e
b0 /
b0 d
b0 $
b0 '
b0 ?
b0 D
b0 G
b0 K
b0 P
b0 U
b0 Y
b0 [
b0 ^
b0 b
b0 f
b0 i
b0 l
b0 o
#50000
b0 !
b0 >
07
05
b1 "
b1 *
b1 :
b1 I
03
b1110 8
b1110 R
b1100 6
b1100 W
b1101 ,
b1101 n
1O
1T
1#
1.
1X
1N
1S
b100 =
b100 B
b1 <
b1 F
b1110 4
b1110 Z
b11 2
b11 ]
b1110 -
b1110 k
b10 +
b10 q
b10 g
b11 9
b11 M
b11 %
b11 (
b11 @
b11 E
b11 H
b11 L
b11 Q
b11 V
b11 \
b11 _
b11 c
b11 j
b11 m
b11 p
b1000 1
b1000 a
b0 `
b1000 e
b0 /
b0 d
b1 $
b1 '
b1 ?
b1 D
b1 G
b1 K
b1 P
b1 U
b1 Y
b1 [
b1 ^
b1 b
b1 f
b1 i
b1 l
b1 o
b1110 &
b1110 )
#70000
b1 ;
b1 J
b0 "
b0 *
b0 :
b0 I
b1110 6
b1110 W
b1111 ,
b1111 n
b10 =
b10 B
b1 2
b1 ]
b0 -
b0 k
0#
0.
b0 +
b0 q
b1 9
b1 M
b10 1
b10 a
b10 e
b1 %
b1 (
b1 @
b1 E
b1 H
b1 L
b1 Q
b1 V
b1 \
b1 _
b1 c
b1 j
b1 m
b1 p
#90000
b1 !
b1 >
17
15
b1010 "
b1010 *
b1010 :
b1010 I
13
b0 ;
b0 J
b111 8
b111 R
b1 6
b1 W
b1001 ,
b1001 n
0O
0T
1C
1#
1.
0X
0N
0S
b10110 =
b110 B
b1000 <
b1000 F
b101 4
b101 Z
b1110 2
b1110 ]
b1010 0
b1010 h
b1110 -
b1110 k
b110 +
b110 q
b11 g
b1100 %
b1100 (
b1100 @
b1100 E
b1100 H
b1100 L
b1100 Q
b1100 V
b1100 \
b1100 _
b1100 c
b1100 j
b1100 m
b1100 p
b1111000 9
b1111000 M
b0 1
b0 a
b0 `
b0 e
b0 /
b0 d
b1010 $
b1010 '
b1010 ?
b1010 D
b1010 G
b1010 K
b1010 P
b1010 U
b1010 Y
b1010 [
b1010 ^
b1010 b
b1010 f
b1010 i
b1010 l
b1010 o
b1111 &
b1111 )
#110000
b0 "
b0 *
b0 :
b0 I
b1111 8
b1111 R
b1111 6
b1111 W
b1111 ,
b1111 n
0#
0.
b0 B
b0 =
0C
b0 <
b0 F
b1111 4
b1111 Z
b0 2
b0 ]
b0 0
b0 h
b0 -
b0 k
b0 +
b0 q
b0 %
b0 (
b0 @
b0 E
b0 H
b0 L
b0 Q
b0 V
b0 \
b0 _
b0 c
b0 j
b0 m
b0 p
b0 9
b0 M
b0 $
b0 '
b0 ?
b0 D
b0 G
b0 K
b0 P
b0 U
b0 Y
b0 [
b0 ^
b0 b
b0 f
b0 i
b0 l
b0 o
#130000
05
03
b110 6
b110 W
b110 ,
b110 n
1X
1N
1S
b1001 =
b1001 B
b110 4
b110 Z
b1001 2
b1001 ]
b1001 0
b1001 h
b1001 -
b1001 k
b1001 +
b1001 q
b1001 !
b1001 >
b1001 1
b1001 a
b1001 `
b1001 e
b1001 /
b1001 d
b1001 $
b1001 '
b1001 ?
b1001 D
b1001 G
b1001 K
b1001 P
b1001 U
b1001 Y
b1001 [
b1001 ^
b1001 b
b1001 f
b1001 i
b1001 l
b1001 o
b1011 &
b1011 )
#150000
b1000 6
b1000 W
b1000 ,
b1000 n
b111 =
b111 B
b1000 4
b1000 Z
b111 2
b111 ]
b111 !
b111 >
b111 0
b111 h
b111 -
b111 k
b111 +
b111 q
b111 1
b111 a
b111 `
b111 e
b111 /
b111 d
b111 $
b111 '
b111 ?
b111 D
b111 G
b111 K
b111 P
b111 U
b111 Y
b111 [
b111 ^
b111 b
b111 f
b111 i
b111 l
b111 o
#170000
b110 6
b110 W
b110 ,
b110 n
b1001 !
b1001 >
b1001 =
b1001 B
b110 4
b110 Z
b1001 2
b1001 ]
b1001 0
b1001 h
b1001 -
b1001 k
b1001 +
b1001 q
b0 g
b1001 1
b1001 a
b1001 `
b1001 e
b1001 /
b1001 d
b1001 $
b1001 '
b1001 ?
b1001 D
b1001 G
b1001 K
b1001 P
b1001 U
b1001 Y
b1001 [
b1001 ^
b1001 b
b1001 f
b1001 i
b1001 l
b1001 o
b1100 &
b1100 )
#190000
15
13
b1001 6
b1001 W
b1001 ,
b1001 n
0X
0N
0S
b110 =
b110 B
b1001 4
b1001 Z
b110 2
b110 ]
b110 !
b110 >
b110 0
b110 h
b110 -
b110 k
b110 +
b110 q
b110 1
b110 a
b110 `
b110 e
b110 /
b110 d
b110 $
b110 '
b110 ?
b110 D
b110 G
b110 K
b110 P
b110 U
b110 Y
b110 [
b110 ^
b110 b
b110 f
b110 i
b110 l
b110 o
#210000
07
05
b1 ;
b1 J
b10 "
b10 *
b10 :
b10 I
03
b1110 8
b1110 R
b1000 6
b1000 W
b1000 !
b1000 >
1O
1T
1X
1N
1S
b1000 =
b1000 B
b1 <
b1 F
b1010 4
b1010 Z
b111 2
b111 ]
b101 0
b101 h
b10 -
b10 k
b1111 9
b1111 M
b11 %
b11 (
b11 @
b11 E
b11 H
b11 L
b11 Q
b11 V
b11 \
b11 _
b11 c
b11 j
b11 m
b11 p
b1000 1
b1000 a
b0 `
b1000 e
b0 /
b0 d
b101 $
b101 '
b101 ?
b101 D
b101 G
b101 K
b101 P
b101 U
b101 Y
b101 [
b101 ^
b101 b
b101 f
b101 i
b101 l
b101 o
b0 &
b0 )
#230000
17
15
13
b1011 8
b1011 R
b1001 6
b1001 W
b1010 !
b1010 >
b1101 ,
b1101 n
0O
0T
0X
0N
0S
b1010 =
b1010 B
b100 <
b100 F
b1001 4
b1001 Z
b110 2
b110 ]
b110 0
b110 h
b10 +
b10 q
b100 %
b100 (
b100 @
b100 E
b100 H
b100 L
b100 Q
b100 V
b100 \
b100 _
b100 c
b100 j
b100 m
b100 p
b11000 9
b11000 M
b0 1
b0 a
b0 e
b110 $
b110 '
b110 ?
b110 D
b110 G
b110 K
b110 P
b110 U
b110 Y
b110 [
b110 ^
b110 b
b110 f
b110 i
b110 l
b110 o
#250000
b11 ;
b11 J
b0 "
b0 *
b0 :
b0 I
b1101 8
b1101 R
b1011 ,
b1011 n
b1100 0
b1100 h
b1000 =
b1000 B
b10 <
b10 F
b100 -
b100 k
b100 +
b100 q
b100 !
b100 >
b1 g
b1100 9
b1100 M
b1000 1
b1000 a
b1 `
b1000 e
b1 /
b1 d
b10 %
b10 (
b10 @
b10 E
b10 H
b10 L
b10 Q
b10 V
b10 \
b10 _
b10 c
b10 j
b10 m
b10 p
b1 &
b1 )
#270000
05
b10 "
b10 *
b10 :
b10 I
b10 ;
b10 J
b1111 8
b1111 R
b100 6
b100 W
b100 ,
b100 n
1O
1T
b1011 =
b1011 B
b0 <
b0 F
b111 4
b111 Z
b1011 2
b1011 ]
b101 !
b101 >
b0 0
b0 h
b101 -
b101 k
b1011 +
b1011 q
b11 %
b11 (
b11 @
b11 E
b11 H
b11 L
b11 Q
b11 V
b11 \
b11 _
b11 c
b11 j
b11 m
b11 p
b11000 9
b11000 M
b0 1
b0 a
b1 `
b0 e
b1 /
b1 d
b1000 $
b1000 '
b1000 ?
b1000 D
b1000 G
b1000 K
b1000 P
b1000 U
b1000 Y
b1000 [
b1000 ^
b1000 b
b1000 f
b1000 i
b1000 l
b1000 o
#290000
03
b1 ;
b1 J
b1 "
b1 *
b1 :
b1 I
b1101 8
b1101 R
b1100 6
b1100 W
b1110 ,
b1110 n
0O
0T
1X
1N
1S
b101 =
b101 B
b10 <
b10 F
b1100 4
b1100 Z
b11 2
b11 ]
b1 0
b1 h
b1 -
b1 k
b1 +
b1 q
b110 !
b110 >
b10 g
b10 %
b10 (
b10 @
b10 E
b10 H
b10 L
b10 Q
b10 V
b10 \
b10 _
b10 c
b10 j
b10 m
b10 p
b110 9
b110 M
b1100 1
b1100 a
b0 `
b1100 e
b0 /
b0 d
b11 $
b11 '
b11 ?
b11 D
b11 G
b11 K
b11 P
b11 U
b11 Y
b11 [
b11 ^
b11 b
b11 f
b11 i
b11 l
b11 o
b10 &
b10 )
#310000
13
b0 ;
b0 J
b100 "
b100 *
b100 :
b100 I
b1011 8
b1011 R
b1010 6
b1010 W
1O
1T
1#
1.
0X
0N
0S
b1001 =
b1001 B
b100 <
b100 F
b1011 4
b1011 Z
b101 2
b101 ]
b10100 !
b10100 >
b10 0
b10 h
b1111 -
b1111 k
b101 %
b101 (
b101 @
b101 E
b101 H
b101 L
b101 Q
b101 V
b101 \
b101 _
b101 c
b101 j
b101 m
b101 p
b10100 9
b10100 M
b0 1
b0 a
b0 `
b0 e
b0 /
b0 d
b100 $
b100 '
b100 ?
b100 D
b100 G
b100 K
b100 P
b100 U
b100 Y
b100 [
b100 ^
b100 b
b100 f
b100 i
b100 l
b100 o
#330000
15
b100 ;
b100 J
b0 "
b0 *
b0 :
b0 I
b1111 8
b1111 R
b101 6
b101 W
b101 ,
b101 n
0O
0T
b1010 =
b1010 B
b0 <
b0 F
b111 4
b111 Z
b1010 2
b1010 ]
b1000 0
b1000 h
b110 -
b110 k
0#
0.
b1010 +
b1010 q
b100 !
b100 >
b11 g
b10 `
b10 /
b10 d
b10 %
b10 (
b10 @
b10 E
b10 H
b10 L
b10 Q
b10 V
b10 \
b10 _
b10 c
b10 j
b10 m
b10 p
b10000 9
b10000 M
b1000 $
b1000 '
b1000 ?
b1000 D
b1000 G
b1000 K
b1000 P
b1000 U
b1000 Y
b1000 [
b1000 ^
b1000 b
b1000 f
b1000 i
b1000 l
b1000 o
b11 &
b11 )
#350000
07
05
b111 !
b111 >
03
b111 ;
b111 J
b1110 8
b1110 R
b1000 6
b1000 W
b1001 ,
b1001 n
1O
1T
1X
1N
1S
b1000 =
b1000 B
b1 <
b1 F
b1000 4
b1000 Z
b111 2
b111 ]
b111 0
b111 h
b110 +
b110 q
b1 %
b1 (
b1 @
b1 E
b1 H
b1 L
b1 Q
b1 V
b1 \
b1 _
b1 c
b1 j
b1 m
b1 p
b111 9
b111 M
b1110 1
b1110 a
b11 `
b1110 e
b11 /
b11 d
b111 $
b111 '
b111 ?
b111 D
b111 G
b111 K
b111 P
b111 U
b111 Y
b111 [
b111 ^
b111 b
b111 f
b111 i
b111 l
b111 o
#370000
17
15
b1010 "
b1010 *
b1010 :
b1010 I
13
b0 ;
b0 J
b111 8
b111 R
b1 6
b1 W
0O
0T
1C
1#
1.
0X
0N
0S
b10110 =
b110 B
b1000 <
b1000 F
b101 4
b101 Z
b1110 2
b1110 ]
b1010 0
b1010 h
b1110 -
b1110 k
b1000 !
b1000 >
b0 g
b1100 %
b1100 (
b1100 @
b1100 E
b1100 H
b1100 L
b1100 Q
b1100 V
b1100 \
b1100 _
b1100 c
b1100 j
b1100 m
b1100 p
b1111000 9
b1111000 M
b0 1
b0 a
b0 `
b0 e
b0 /
b0 d
b1010 $
b1010 '
b1010 ?
b1010 D
b1010 G
b1010 K
b1010 P
b1010 U
b1010 Y
b1010 [
b1010 ^
b1010 b
b1010 f
b1010 i
b1010 l
b1010 o
b100 &
b100 )
#390000
05
03
b0 !
b0 >
b0 "
b0 *
b0 :
b0 I
b1111 8
b1111 R
b0 6
b0 W
b0 ,
b0 n
0C
1X
1N
1S
b1111 =
b1111 B
b0 <
b0 F
b0 4
b0 Z
b1111 2
b1111 ]
b1111 0
b1111 h
b1111 -
b1111 k
0#
0.
b1111 +
b1111 q
b1111 1
b1111 a
b1111 `
b1111 e
b1111 /
b1111 d
b0 %
b0 (
b0 @
b0 E
b0 H
b0 L
b0 Q
b0 V
b0 \
b0 _
b0 c
b0 j
b0 m
b0 p
b0 9
b0 M
b1111 $
b1111 '
b1111 ?
b1111 D
b1111 G
b1111 K
b1111 P
b1111 U
b1111 Y
b1111 [
b1111 ^
b1111 b
b1111 f
b1111 i
b1111 l
b1111 o
#410000
15
b1010 "
b1010 *
b1010 :
b1010 I
13
b111 8
b111 R
b1 6
b1 W
b1001 ,
b1001 n
1C
1#
1.
0X
0N
0S
b10110 =
b110 B
b1000 <
b1000 F
b101 4
b101 Z
b1110 2
b1110 ]
b100 0
b100 h
b1110 -
b1110 k
b110 +
b110 q
b1110 !
b1110 >
b1 g
b1111000 9
b1111000 M
b1100 %
b1100 (
b1100 @
b1100 E
b1100 H
b1100 L
b1100 Q
b1100 V
b1100 \
b1100 _
b1100 c
b1100 j
b1100 m
b1100 p
b0 1
b0 a
b0 `
b0 e
b0 /
b0 d
b1010 $
b1010 '
b1010 ?
b1010 D
b1010 G
b1010 K
b1010 P
b1010 U
b1010 Y
b1010 [
b1010 ^
b1010 b
b1010 f
b1010 i
b1010 l
b1010 o
b101 &
b101 )
#430000
07
05
b1 ;
b1 J
03
b0 "
b0 *
b0 :
b0 I
b1110 8
b1110 R
b1110 6
b1110 W
b1111 ,
b1111 n
1O
1T
0#
0.
1X
1N
1S
b10 B
b10 =
0C
b1 <
b1 F
b1 !
b1 >
b1110 4
b1110 Z
b1 2
b1 ]
b10 0
b10 h
b0 -
b0 k
b0 +
b0 q
b10 1
b10 a
b10 e
b1 %
b1 (
b1 @
b1 E
b1 H
b1 L
b1 Q
b1 V
b1 \
b1 _
b1 c
b1 j
b1 m
b1 p
b1 9
b1 M
b1 $
b1 '
b1 ?
b1 D
b1 G
b1 K
b1 P
b1 U
b1 Y
b1 [
b1 ^
b1 b
b1 f
b1 i
b1 l
b1 o
#450000
17
13
b1010 ;
b1010 J
b1111 8
b1111 R
b100 6
b100 W
b100 ,
b100 n
0X
0N
0S
b1011 =
b1011 B
b0 <
b0 F
b101 4
b101 Z
b1011 2
b1011 ]
b101 0
b101 h
b1001 -
b1001 k
b1011 +
b1011 q
b101 !
b101 >
b10 g
b1010 9
b1010 M
b100 1
b100 a
b101 `
b100 e
b101 /
b101 d
b1010 $
b1010 '
b1010 ?
b1010 D
b1010 G
b1010 K
b1010 P
b1010 U
b1010 Y
b1010 [
b1010 ^
b1010 b
b1010 f
b1010 i
b1010 l
b1010 o
b110 &
b110 )
#470000
07
03
b111 ;
b111 J
b1110 8
b1110 R
b1000 6
b1000 W
b1000 !
b1000 >
b1001 ,
b1001 n
1X
1N
1S
b1000 =
b1000 B
b1 <
b1 F
b1000 4
b1000 Z
b111 2
b111 ]
b11 0
b11 h
b110 -
b110 k
b110 +
b110 q
b111 9
b111 M
b1110 1
b1110 a
b11 `
b1110 e
b11 /
b11 d
b111 $
b111 '
b111 ?
b111 D
b111 G
b111 K
b111 P
b111 U
b111 Y
b111 [
b111 ^
b111 b
b111 f
b111 i
b111 l
b111 o
#490000
17
15
b1010 "
b1010 *
b1010 :
b1010 I
13
b0 ;
b0 J
b111 8
b111 R
b1 6
b1 W
0O
0T
1C
1#
1.
0X
0N
0S
b10110 =
b110 B
b1000 <
b1000 F
b101 4
b101 Z
b1110 2
b1110 ]
b1010 0
b1010 h
b1110 -
b1110 k
b110 !
b110 >
b11 g
b1100 %
b1100 (
b1100 @
b1100 E
b1100 H
b1100 L
b1100 Q
b1100 V
b1100 \
b1100 _
b1100 c
b1100 j
b1100 m
b1100 p
b1111000 9
b1111000 M
b0 1
b0 a
b0 `
b0 e
b0 /
b0 d
b1010 $
b1010 '
b1010 ?
b1010 D
b1010 G
b1010 K
b1010 P
b1010 U
b1010 Y
b1010 [
b1010 ^
b1010 b
b1010 f
b1010 i
b1010 l
b1010 o
b111 &
b111 )
#510000
05
03
b1 ;
b1 J
b101 "
b101 *
b101 :
b101 I
b101 8
b101 R
b0 6
b0 W
b1010 ,
b1010 n
1X
1N
1S
b11001 =
b1001 B
b1010 <
b1010 F
b101 !
b101 >
b0 4
b0 Z
b1111 2
b1111 ]
b1111 0
b1111 h
b101 -
b101 k
0#
0.
b101 +
b101 q
b1010 %
b1010 (
b1010 @
b1010 E
b1010 H
b1010 L
b1010 Q
b1010 V
b1010 \
b1010 _
b1010 c
b1010 j
b1010 m
b1010 p
b10010110 9
b10010110 M
b1111 $
b1111 '
b1111 ?
b1111 D
b1111 G
b1111 K
b1111 P
b1111 U
b1111 Y
b1111 [
b1111 ^
b1111 b
b1111 f
b1111 i
b1111 l
b1111 o
#530000
b1010 ;
b1010 J
13
b0 "
b0 *
b0 :
b0 I
b1111 8
b1111 R
b100 6
b100 W
b100 ,
b100 n
1O
1T
0C
0X
0N
0S
b1011 =
b1011 B
b0 <
b0 F
b101 4
b101 Z
b1011 2
b1011 ]
b1010 0
b1010 h
b1001 -
b1001 k
b1011 +
b1011 q
b1010 !
b1010 >
b100 1
b100 a
b101 `
b100 e
b101 /
b101 d
b1 %
b1 (
b1 @
b1 E
b1 H
b1 L
b1 Q
b1 V
b1 \
b1 _
b1 c
b1 j
b1 m
b1 p
b1010 9
b1010 M
b1010 $
b1010 '
b1010 ?
b1010 D
b1010 G
b1010 K
b1010 P
b1010 U
b1010 Y
b1010 [
b1010 ^
b1010 b
b1010 f
b1010 i
b1010 l
b1010 o
b1011 &
b1011 )
#550000
07
03
b11 ;
b11 J
b1110 8
b1110 R
b101 ,
b101 n
1X
1N
1S
b1100 =
b1100 B
b1 <
b1 F
b110 4
b110 Z
b1001 !
b1001 >
b1001 0
b1001 h
b110 -
b110 k
b1010 +
b1010 q
b11 %
b11 (
b11 @
b11 E
b11 H
b11 L
b11 Q
b11 V
b11 \
b11 _
b11 c
b11 j
b11 m
b11 p
b11011 9
b11011 M
b1000 1
b1000 a
b1 `
b1000 e
b1 /
b1 d
b1001 $
b1001 '
b1001 ?
b1001 D
b1001 G
b1001 K
b1001 P
b1001 U
b1001 Y
b1001 [
b1001 ^
b1001 b
b1001 f
b1001 i
b1001 l
b1001 o
#570000
17
b1010 ;
b1010 J
13
b1111 8
b1111 R
b100 ,
b100 n
b1010 !
b1010 >
0X
0N
0S
b1011 =
b1011 B
b0 <
b0 F
b101 4
b101 Z
b1010 0
b1010 h
b1001 -
b1001 k
b1011 +
b1011 q
b0 g
b101 `
b101 /
b101 d
b1 %
b1 (
b1 @
b1 E
b1 H
b1 L
b1 Q
b1 V
b1 \
b1 _
b1 c
b1 j
b1 m
b1 p
b1010 9
b1010 M
b100 1
b100 a
b100 e
b1010 $
b1010 '
b1010 ?
b1010 D
b1010 G
b1010 K
b1010 P
b1010 U
b1010 Y
b1010 [
b1010 ^
b1010 b
b1010 f
b1010 i
b1010 l
b1010 o
b1100 &
b1100 )
#590000
07
03
b11 ;
b11 J
b1110 8
b1110 R
b101 ,
b101 n
1X
1N
1S
b1100 =
b1100 B
b1 <
b1 F
b110 4
b110 Z
b1001 !
b1001 >
b1001 0
b1001 h
b110 -
b110 k
b1010 +
b1010 q
b11 %
b11 (
b11 @
b11 E
b11 H
b11 L
b11 Q
b11 V
b11 \
b11 _
b11 c
b11 j
b11 m
b11 p
b11011 9
b11011 M
b1000 1
b1000 a
b1 `
b1000 e
b1 /
b1 d
b1001 $
b1001 '
b1001 ?
b1001 D
b1001 G
b1001 K
b1001 P
b1001 U
b1001 Y
b1001 [
b1001 ^
b1001 b
b1001 f
b1001 i
b1001 l
b1001 o
